module gitlab.com/gitlab-org/fleeting/taskscaler

go 1.17

require (
	github.com/hashicorp/go-hclog v1.3.0
	gitlab.com/gitlab-org/fleeting/fleeting v0.0.0-20211127131706-c8fb777e1d4a
)

require (
	github.com/fatih/color v1.13.0 // indirect
	github.com/golang/protobuf v1.5.0 // indirect
	github.com/hashicorp/go-plugin v1.4.3 // indirect
	github.com/hashicorp/yamux v0.0.0-20180604194846-3520598351bb // indirect
	github.com/mattn/go-colorable v0.1.12 // indirect
	github.com/mattn/go-isatty v0.0.14 // indirect
	github.com/mitchellh/go-testing-interface v0.0.0-20171004221916-a61a99592b77 // indirect
	github.com/oklog/run v1.0.0 // indirect
	golang.org/x/net v0.0.0-20211216030914-fe4d6282115f // indirect
	golang.org/x/sys v0.0.0-20220503163025-988cb79eb6c6 // indirect
	golang.org/x/text v0.3.7 // indirect
	google.golang.org/genproto v0.0.0-20200526211855-cb27e3aa2013 // indirect
	google.golang.org/grpc v1.44.0 // indirect
	google.golang.org/protobuf v1.27.1 // indirect
)
